{
    "source": "mockoon:1.10.0",
    "data": [
        {
            "type": "environment",
            "item": {
                "uuid": "",
                "lastMigration": 12,
                "name": "Demo API",
                "endpointPrefix": "",
                "latency": 0,
                "port": 3000,
                "routes": [
                    {
                        "uuid": "",
                        "documentation": "",
                        "method": "get",
                        "endpoint": "office",
                        "responses": [
                            {
                                "uuid": "",
                                "body": "{\n  \"offices\": [\n    {{# repeat (queryParam 'total' '5') }}\n      {\n        \"id\": \"{{ faker 'random.number' min=1 max=1000 }}\",\n        \"created_at\": \"{{ faker 'date.recent' }}\",\n        \"updated_at\": \"{{ faker 'date.recent' }}\",\n        \"name\": \"{{ faker 'company.companyName' }}\",\n        \"address\": \"{{ faker 'address.city' }}\",\n        \n      },\n    {{/ repeat }}\n  ],\n}",
                                "latency": 0,
                                "statusCode": 200,
                                "label": "",
                                "headers": [
                                    {
                                        "key": "",
                                        "value": ""
                                    }
                                ],
                                "filePath": "",
                                "sendFileAsBody": false,
                                "rules": [],
                                "rulesOperator": "OR",
                                "disableTemplating": false
                            },
                            {
                                "uuid": "",
                                "body": "",
                                "latency": 0,
                                "statusCode": 404,
                                "label": "",
                                "headers": [
                                    {
                                        "key": "",
                                        "value": ""
                                    }
                                ],
                                "filePath": "",
                                "sendFileAsBody": false,
                                "rules": [],
                                "rulesOperator": "OR",
                                "disableTemplating": false
                            }
                        ],
                        "enabled": true
                    },
                    {
                        "uuid": "",
                        "documentation": "",
                        "method": "get",
                        "endpoint": "office/:param1",
                        "responses": [
                            {
                                "uuid": "",
                                "body": "{\n  \"offices\": [\n      {\n        \"id\": \"{{urlParam 'param1'}}\",\n        \"created_at\": \"{{ faker 'date.recent' }}\",\n        \"updated_at\": \"{{ faker 'date.recent' }}\",\n        \"name\": \"{{ faker 'company.companyName' }}\",\n        \"address\": \"{{ faker 'address.city' }}\",\n        \n      },\n  ],\n}",
                                "latency": 0,
                                "statusCode": 200,
                                "label": "",
                                "headers": [
                                    {
                                        "key": "",
                                        "value": ""
                                    }
                                ],
                                "filePath": "",
                                "sendFileAsBody": false,
                                "rules": [],
                                "rulesOperator": "OR",
                                "disableTemplating": false
                            },
                            {
                                "uuid": "",
                                "body": "",
                                "latency": 0,
                                "statusCode": 404,
                                "label": "",
                                "headers": [
                                    {
                                        "key": "",
                                        "value": ""
                                    }
                                ],
                                "filePath": "",
                                "sendFileAsBody": false,
                                "rules": [],
                                "rulesOperator": "OR",
                                "disableTemplating": false
                            }
                        ],
                        "enabled": true
                    },
                    {
                        "uuid": "",
                        "documentation": "",
                        "method": "get",
                        "endpoint": "user/:param1",
                        "responses": [
                            {
                                "uuid": "",
                                "body": "{\n  \"users\": [\n  \n      {\n        \"id\": \"{{urlParam 'param1'}}\",\n        \"created_at\": \"{{ faker 'date.recent' }}\",\n        \"updated_at\": \"{{ faker 'date.recent' }}\",\n        \"full_name\": \"{{ faker 'name.firstName' }} {{ faker 'name.firstName' }}\",\n        \"email\": \"{{ faker 'internet.email' }}\",\n        \"password\": \"{{ faker 'internet.password' }}\",\n        \"office_id\": \"{{ faker 'random.number' min=1 max=1000 }}\",\n        \n      },\n \n  ],\n}",
                                "latency": 0,
                                "statusCode": 200,
                                "label": "",
                                "headers": [
                                    {
                                        "key": "",
                                        "value": ""
                                    }
                                ],
                                "filePath": "",
                                "sendFileAsBody": false,
                                "rules": [],
                                "rulesOperator": "OR",
                                "disableTemplating": false
                            },
                            {
                                "uuid": "",
                                "body": "",
                                "latency": 0,
                                "statusCode": 404,
                                "label": "",
                                "headers": [
                                    {
                                        "key": "",
                                        "value": ""
                                    }
                                ],
                                "filePath": "",
                                "sendFileAsBody": false,
                                "rules": [],
                                "rulesOperator": "OR",
                                "disableTemplating": false
                            }
                        ],
                        "enabled": true
                    },
                    {
                        "uuid": "",
                        "documentation": "",
                        "method": "get",
                        "endpoint": "todo/:param1",
                        "responses": [
                            {
                                "uuid": "",
                                "body": "{\n  \"todos\": [\n  \n      {\n        \"id\": \"{{urlParam 'param1'}}\",\n        \"created_at\": \"{{ faker 'date.recent' }}\",\n        \"updated_at\": \"{{ faker 'date.recent' }}\",\n        \"name\": \"do {{ faker 'lorem.sentence' }}\",\n        \"description\": \"{{ faker 'lorem.paragraph' }}\",\n        \"is_done\": \"{{ faker 'random.number' min=0 max=2 }}\",\n        \"user_id\": \"{{ faker 'random.number' min=1 max=1000 }}\",\n      },\n\n  ],\n}",
                                "latency": 0,
                                "statusCode": 200,
                                "label": "",
                                "headers": [
                                    {
                                        "key": "",
                                        "value": ""
                                    }
                                ],
                                "filePath": "",
                                "sendFileAsBody": false,
                                "rules": [],
                                "rulesOperator": "OR",
                                "disableTemplating": false
                            },
                            {
                                "uuid": "",
                                "body": "",
                                "latency": 0,
                                "statusCode": 404,
                                "label": "",
                                "headers": [
                                    {
                                        "key": "",
                                        "value": ""
                                    }
                                ],
                                "filePath": "",
                                "sendFileAsBody": false,
                                "rules": [],
                                "rulesOperator": "OR",
                                "disableTemplating": false
                            }
                        ],
                        "enabled": true
                    },
                    {
                        "uuid": "",
                        "documentation": "",
                        "method": "get",
                        "endpoint": "user",
                        "responses": [
                            {
                                "uuid": "",
                                "body": "{\n  \"users\": [\n    {{# repeat (queryParam 'total' '10') }}\n      {\n        \"id\": \"{{ faker 'random.number' min=1 max=1000 }}\",\n        \"created_at\": \"{{ faker 'date.recent' }}\",\n        \"updated_at\": \"{{ faker 'date.recent' }}\",\n        \"full_name\": \"{{ faker 'name.firstName' }} {{ faker 'name.firstName' }}\",\n        \"email\": \"{{ faker 'internet.email' }}\",\n        \"password\": \"{{ faker 'internet.password' }}\",\n        \"office_id\": \"{{ faker 'random.number' min=1 max=1000 }}\",\n      },\n    {{/ repeat }}\n  ],\n}",
                                "latency": 0,
                                "statusCode": 200,
                                "label": "",
                                "headers": [
                                    {
                                        "key": "",
                                        "value": ""
                                    }
                                ],
                                "filePath": "",
                                "sendFileAsBody": false,
                                "rules": [],
                                "rulesOperator": "OR",
                                "disableTemplating": false
                            }
                        ],
                        "enabled": true
                    },
                    {
                        "uuid": "",
                        "documentation": "",
                        "method": "get",
                        "endpoint": "todo",
                        "responses": [
                            {
                                "uuid": "",
                                "body": "{\n  \"todos\": [\n    {{# repeat (queryParam 'total' '10') }}\n      {\n        \"id\": \"{{ faker 'random.number' min=1 max=1000 }}\",\n        \"created_at\": \"{{ faker 'date.recent' }}\",\n        \"updated_at\": \"{{ faker 'date.recent' }}\",\n        \"name\": \"do {{ faker 'lorem.sentence' }}\",\n        \"description\": \"{{ faker 'lorem.paragraph' }}\",\n        \"is_done\": \"{{ faker 'random.number' min=0 max=2 }}\",\n        \"user_id\": \"{{ faker 'random.number' min=1 max=1000 }}\",\n      },\n    {{/ repeat }}\n  ],\n}",
                                "latency": 0,
                                "statusCode": 200,
                                "label": "",
                                "headers": [
                                    {
                                        "key": "",
                                        "value": ""
                                    }
                                ],
                                "filePath": "",
                                "sendFileAsBody": false,
                                "rules": [],
                                "rulesOperator": "OR",
                                "disableTemplating": false
                            }
                        ],
                        "enabled": true
                    },
                    {
                        "uuid": "",
                        "documentation": "",
                        "method": "post",
                        "endpoint": "office/edit/:param1",
                        "responses": [
                            {
                                "uuid": "",
                                "body": "{\n  \"Message\": \"berhasil mengubah office dengan id: {{urlParam 'param1'}}\"\n}",
                                "latency": 0,
                                "statusCode": 200,
                                "label": "",
                                "headers": [
                                    {
                                        "key": "",
                                        "value": ""
                                    }
                                ],
                                "filePath": "",
                                "sendFileAsBody": false,
                                "rules": [
                                    {
                                        "target": "body",
                                        "modifier": null,
                                        "value": null,
                                        "isRegex": false
                                    }
                                ],
                                "rulesOperator": "OR",
                                "disableTemplating": false
                            }
                        ],
                        "enabled": true
                    },
                    {
                        "uuid": "",
                        "documentation": "",
                        "method": "post",
                        "endpoint": "user/edit/:param1",
                        "responses": [
                            {
                                "uuid": "",
                                "body": "{\n  \"Message\": \"berhasil mengubah user dengan id: {{urlParam 'param1'}}\"\n}",
                                "latency": 0,
                                "statusCode": 200,
                                "label": "",
                                "headers": [
                                    {
                                        "key": "",
                                        "value": ""
                                    }
                                ],
                                "filePath": "",
                                "sendFileAsBody": false,
                                "rules": [],
                                "rulesOperator": "OR",
                                "disableTemplating": false
                            }
                        ],
                        "enabled": true
                    },
                    {
                        "uuid": "",
                        "documentation": "",
                        "method": "post",
                        "endpoint": "todo/edit/:param1",
                        "responses": [
                            {
                                "uuid": "",
                                "body": "{\n  \"Message\": \"berhasil mengubah todo dengan id: {{urlParam 'param1'}}\"\n}",
                                "latency": 0,
                                "statusCode": 200,
                                "label": "",
                                "headers": [
                                    {
                                        "key": "",
                                        "value": ""
                                    }
                                ],
                                "filePath": "",
                                "sendFileAsBody": false,
                                "rules": [],
                                "rulesOperator": "OR",
                                "disableTemplating": false
                            }
                        ],
                        "enabled": true
                    },
                    {
                        "uuid": "",
                        "documentation": "",
                        "method": "get",
                        "endpoint": "user/:param1/todo",
                        "responses": [
                            {
                                "uuid": "",
                                "body": "{\n  \"todos\": [\n    {{# repeat (queryParam 'total' '10') }}\n      {\n        \"id\": \"{{ faker 'random.number' min=1 max=1000 }}\",\n        \"created_at\": \"{{ faker 'date.recent' }}\",\n        \"updated_at\": \"{{ faker 'date.recent' }}\",\n        \"name\": \"do {{ faker 'lorem.sentence' }}\",\n        \"description\": \"{{ faker 'lorem.paragraph' }}\",\n        \"is_done\": \"{{ faker 'random.number' min=0 max=2 }}\",\n        \"user_id\": \"{{urlParam 'param1'}}\",\n      },\n    {{/ repeat }}\n  ],\n}",
                                "latency": 0,
                                "statusCode": 200,
                                "label": "",
                                "headers": [
                                    {
                                        "key": "",
                                        "value": ""
                                    }
                                ],
                                "filePath": "",
                                "sendFileAsBody": false,
                                "rules": [],
                                "rulesOperator": "OR",
                                "disableTemplating": false
                            }
                        ],
                        "enabled": true
                    },
                    {
                        "uuid": "",
                        "documentation": "",
                        "method": "get",
                        "endpoint": "office/:param1/user",
                        "responses": [
                            {
                                "uuid": "",
                                "body": "{\n  \"users\": [\n      {{# repeat (queryParam 'total' '10') }}\n      {\n        \"id\": \"{{ faker 'random.number' min=1 max=1000 }}\",\n        \"created_at\": \"{{ faker 'date.recent' }}\",\n        \"updated_at\": \"{{ faker 'date.recent' }}\",\n        \"full_name\": \"{{ faker 'name.firstName' }} {{ faker 'name.firstName' }}\",\n        \"email\": \"{{ faker 'internet.email' }}\",\n        \"password\": \"{{ faker 'internet.password' }}\",\n        \"office_id\": \"{{urlParam 'param1'}}\",\n        \n      },\n {{/ repeat }}\n  ],\n}",
                                "latency": 0,
                                "statusCode": 200,
                                "label": "",
                                "headers": [
                                    {
                                        "key": "",
                                        "value": ""
                                    }
                                ],
                                "filePath": "",
                                "sendFileAsBody": false,
                                "rules": [],
                                "rulesOperator": "OR",
                                "disableTemplating": false
                            }
                        ],
                        "enabled": true
                    }
                ],
                "proxyMode": false,
                "proxyHost": "",
                "https": false,
                "cors": true,
                "headers": [
                    {
                        "key": "Content-Type",
                        "value": "application/json"
                    }
                ],
                "proxyReqHeaders": [
                    {
                        "key": "",
                        "value": ""
                    }
                ],
                "proxyResHeaders": [
                    {
                        "key": "",
                        "value": ""
                    }
                ]
            }
        }
    ]
}